{
	"info": {
		"_postman_id": "f76c2dca-237b-477a-9d43-64430fbc4974",
		"name": "วรวิทย์ค้นหางาน python Programmer และสมัครงานสำเร็จ",
		"schema": "https://schema.getpostman.com/json/collection/v2.1.0/collection.json"
	},
	"item": [
		{
			"name": "ค้นหางานด้วย keyword ว่า 'Python Programmer'",
			"request": {
				"method": "GET",
				"header": [],
				"url": {
					"raw": ""
				}
			},
			"response": []
		},
		{
			"name": "ดูรายละเอียดงาน  ID 1 Python Programmer",
			"request": {
				"method": "GET",
				"header": [],
				"url": {
					"raw": ""
				}
			},
			"response": []
		},
		{
			"name": "วรวิทย์สมัครงาน Python Programmer สำเร็จ",
			"request": {
				"method": "GET",
				"header": [],
				"url": {
					"raw": ""
				}
			},
			"response": []
		}
	]
}